USER_ID,EMAIL,SPAM_COUNT,WARNINGS
1,shamratbasnet@gmail.com,0,0
2,lovey723@yahoo.com,0,0
3,mitchell.verter@gmail.com,1,1
4,ghanta@hotmail.com,0,0
5,neelvirus@cheap.com,0,0
6,aman@lazybaby.com,0,1
7,admin@firstrowmovies.com,0,0
8,hacker@hackathon.com,1,0
9,iamvirus@yahoo.com,2,0
10,virusisme@hotmail.com,0,2
